Actividad 3
…
## Warning: glm.fit: fitted probabilities numerically 0 or 1 occurred
## Warning: glm.fit: fitted probabilities numerically 0 or 1 occurred
## Warning: glm.fit: fitted probabilities numerically 0 or 1 occurred
## Warning: glm.fit: fitted probabilities numerically 0 or 1 occurred
## Warning: glm.fit: fitted probabilities numerically 0 or 1 occurred
## Warning: glm.fit: fitted probabilities numerically 0 or 1 occurred
## Warning: glm.fit: fitted probabilities numerically 0 or 1 occurred
## Warning: glm.fit: fitted probabilities numerically 0 or 1 occurred
## Warning: glm.fit: fitted probabilities numerically 0 or 1 occurred
## Warning: glm.fit: fitted probabilities numerically 0 or 1 occurred
## Warning: glm.fit: fitted probabilities numerically 0 or 1 occurred
## Warning: glm.fit: fitted probabilities numerically 0 or 1 occurred
## Warning: glm.fit: fitted probabilities numerically 0 or 1 occurred

## # A tibble: 28 × 7
##    modelo                   term           OR conf.low conf.high OR_IC95 p_valor
##    <chr>                    <chr>       <dbl>    <dbl>     <dbl> <chr>   <chr>  
##  1 Modelo crudo             (Intercept) 1.08    0.256      4.59  1.08 (… 0.912  
##  2 Modelo crudo             PC1_tT2     1.19    0.301      4.78  1.19 (… 0.800  
##  3 Modelo crudo             PC1_tT3     1.31    0.342      5.23  1.31 (… 0.693  
##  4 Modelo crudo             PC2_tT2     0.517   0.126      2.01  0.52 (… 0.346  
##  5 Modelo crudo             PC2_tT3     0.238   0.0546     0.922 0.24 (… 0.044  
##  6 Modelo crudo             PC3_tT2     2.45    0.652      9.94  2.45 (… 0.193  
##  7 Modelo crudo             PC3_tT3     0.970   0.238      3.91  0.97 (… 0.965  
##  8 Ajustado por edad y sexo (Intercept) 0.230   0.0138     2.76  0.23 (… 0.268  
##  9 Ajustado por edad y sexo PC1_tT2     1.29    0.305      5.60  1.29 (… 0.725  
## 10 Ajustado por edad y sexo PC1_tT3     1.33    0.312      5.97  1.33 (… 0.698  
## # ℹ 18 more rows
…
